{
    "-": "-", 
    "Company Name": "富田電機", 
    "Company URL": "http://www.berich.com.tw/DP/Cmpinfo/Cmpinfo.asp?cmpname=%B4I%A5%D0%B9q%BE%F7", 
    "上市櫃補件原因": "-", 
    "上市櫃補件日期": "-", 
    "上市櫃退件原因": "-", 
    "上市櫃退件日期": "-", 
    "上興櫃日期": "-", 
    "下興櫃原因": "-", 
    "下興櫃日期": "-", 
    "代理發言人": "-", 
    "停止過戶日": "106/06/15~106/06/19", 
    "停止過戶期間": "-", 
    "公司傳真": "-", 
    "公司地址": "臺中市神岡區豐洲里豐工南路18號", 
    "公司網址": "www.fukuta-motor.com.tw/", 
    "公司電話": "04-2528-8833", 
    "公開發行日期": "-", 
    "增資金額(億)": "-", 
    "實收資本額(元)": "335,235,260", 
    "審議會通過日期": "-", 
    "成立日期": "077年04月01日", 
    "承銷價": "-", 
    "掛牌日期": "-", 
    "換發無實體日期": "-", 
    "普通股": "-", 
    "暫停公開發行日期": "-", 
    "最後過戶日": "-", 
    "未上市櫃股票公司名稱": "富田電機股份有限公司", 
    "歷年現金增(減)資": "1.增資0億元，可認股數149股，認購價100元，最後過戶日106.06.14，停止過戶期間106.06.15~106.06.19，繳款期間106.06.27~106.07.28", 
    "歷年股東會": "1.106.06.09股東會，停止過戶期間106.05.11~106.06.092.105.06.24股東會，停止過戶期間105.05.26~105.06.243.103.12.19股東臨時會，停止過戶期間103.12.05~103.12.19", 
    "歷年除權除息": "1.除息5元，盈餘分配之現金股息5元，停止過戶期間106.06.15~106.06.19，2.除息6元，盈餘分配之現金股息6元，停止過戶期間105.10.01~105.10.05，3.除權97股，盈餘配股97股，最後過戶日103.12.19，停止過戶期間103.12.22~103.12.26，", 
    "每仟股減資股數": "-", 
    "每仟股認購股數": "149 股", 
    "減資金額(千)": "-", 
    "營業項目": "CC01010  發電、輸電、配電機械製造業  \nCB01010  機械設備製造業  \nCC01990  其他電機及電子機械器材製造業  \nCD01030  汽車及其零件製造業  \nCD01040  機車及其零件製造業  \nZZ99999  除許可業務外，得經營法令非禁止或限制之業務", 
    "特別股": "-", 
    "現金股息": "5元", 
    "申請上興櫃日期": "-", 
    "申請類別": "-", 
    "發言人": "-", 
    "發言人電話": "-", 
    "簽證會計師": "-", 
    "統一編號": "22802861", 
    "總經理": "-", 
    "繳款期限": "106/06/27~106/07/28", 
    "股務代理": "凱基證券", 
    "股務地址": "-", 
    "股務電話": "02-2389-2999#9", 
    "股東會日期": "107/06/08", 
    "股票代號": "-", 
    "股票股利": "-", 
    "臨時股東會": "-", 
    "董事會通過日期": "-", 
    "董事長": "張金鋒", 
    "解散日期": "-", 
    "認購價": "100 元", 
    "證期局通過日期": "-", 
    "資本額(元)": "600,000,000", 
    "輔導券商": "-", 
    "電子郵件信箱": "-"
}