{
    "-": "-", 
    "Company Name": "致嘉科技", 
    "Company URL": "http://www.berich.com.tw/DP/Cmpinfo/Cmpinfo.asp?cmpname=%ADP%B9%C5%AC%EC%A7%DE", 
    "上市櫃補件原因": "-", 
    "上市櫃補件日期": "-", 
    "上市櫃退件原因": "-", 
    "上市櫃退件日期": "-", 
    "上興櫃日期": "-", 
    "下興櫃原因": "-", 
    "下興櫃日期": "-", 
    "代理發言人": "-", 
    "停止過戶日": "-", 
    "停止過戶期間": "-", 
    "公司傳真": "-", 
    "公司地址": "新竹市埔前里6鄰牛埔東路386號    GPS電子地圖", 
    "公司網址": "www.exojet.com.tw/", 
    "公司電話": "03-538-6161", 
    "公開發行日期": "-", 
    "增資金額(億)": "-", 
    "實收資本額(元)": "407,957,500", 
    "審議會通過日期": "-", 
    "成立日期": "091年08月09日", 
    "承銷價": "-", 
    "掛牌日期": "-", 
    "換發無實體日期": "-", 
    "普通股": "-", 
    "暫停公開發行日期": "-", 
    "最後過戶日": "-", 
    "未上市櫃股票公司名稱": "致嘉科技股份有限公司", 
    "歷年現金增(減)資": "1.增資0億元，可認股數146股，認購價15元，最後過戶日105.08.04，停止過戶期間105.08.05~105.08.09，繳款期間105.08.15~105.09.142.增資0億元，可認股數177股，認購價10元，最後過戶日104.09.21，停止過戶期間104.09.22~104.09.26，繳款期間104.09.30~104.10.303.增資0億元，可認股數234股，認購價15元，最後過戶日99.12.10，停止過戶期間99.12.11~99.12.15", 
    "歷年股東會": "1.105.06.21股東會，停止過戶期間105.05.23~105.06.212.104.06.22股東會，停止過戶期間104.05.23~104.06.223.103.06.13股東會，停止過戶期間103.05.15~103.06.134.102.05.30股東會，停止過戶期間102.05.01~102.05.305.101.04.17股東會，停止過戶期間101.03.19~101.04.176.100.05.17股東會，停止過戶期間100.04.18~100.05.177.99.12.08股東臨時會，停止過戶期間99.11.09~99.12.088.99.05.31股東會，停止過戶期間99.05.02~99.05.31", 
    "歷年除權除息": "-", 
    "每仟股減資股數": "-", 
    "每仟股認購股數": "166.68 股", 
    "減資金額(千)": "-", 
    "營業項目": "C801990  其他化學材料製造業  \nCC01080  電子零組件製造業  \nCA01990  其他非鐵金屬基本工業  \nCA05010  粉末冶金業  \nCC01090  電池製造業  \nIG03010  能源技術服務業  \nF119010  電子材料批發業  \nF401010  國際貿易業  \nZZ99999  除許可業務外，得經營法令非禁止或限制之業務            查詢「原營利事業登記證所登載之營業項目資料」", 
    "特別股": "-", 
    "現金股息": "-", 
    "申請上興櫃日期": "-", 
    "申請類別": "-", 
    "發言人": "-", 
    "發言人電話": "-", 
    "簽證會計師": "-", 
    "統一編號": "80340564", 
    "總經理": "-", 
    "繳款期限": "106/11/29~106/12/29", 
    "股務代理": "宏遠證券", 
    "股務地址": "-", 
    "股務電話": "02-7719-8899#9", 
    "股東會日期": "107/06/20", 
    "股票代號": "-", 
    "股票股利": "-", 
    "臨時股東會": "-", 
    "董事會通過日期": "-", 
    "董事長": "許金榮", 
    "解散日期": "-", 
    "認購價": "15 元", 
    "證期局通過日期": "-", 
    "資本額(元)": "500,000,000", 
    "輔導券商": "-", 
    "電子郵件信箱": "-"
}