{
    "-": "-", 
    "Company Name": "賽亞基因", 
    "Company URL": "http://www.berich.com.tw/DP/Cmpinfo/Cmpinfo.asp?cmpname=%C1%C9%A8%C8%B0%F2%A6%5D%AC%EC%A7%DE", 
    "上市櫃補件原因": "-", 
    "上市櫃補件日期": "-", 
    "上市櫃退件原因": "-", 
    "上市櫃退件日期": "-", 
    "上興櫃日期": "-", 
    "下興櫃原因": "-", 
    "下興櫃日期": "-", 
    "代理發言人": "-", 
    "停止過戶日": "-", 
    "停止過戶期間": "-", 
    "公司傳真": "-", 
    "公司地址": "新北市五股區興珍里中興路1段6號7樓   GPS電子地圖", 
    "公司網址": "www.vitagenomics.com/", 
    "公司電話": "02-8976-9123#7756", 
    "公開發行日期": "-", 
    "增資金額(億)": "-", 
    "實收資本額(元)": "598,058,800", 
    "審議會通過日期": "-", 
    "成立日期": "099年12月29日", 
    "承銷價": "-", 
    "掛牌日期": "-", 
    "換發無實體日期": "-", 
    "普通股": "-", 
    "暫停公開發行日期": "-", 
    "最後過戶日": "-", 
    "未上市櫃股票公司名稱": "賽亞基因科技股份有限公司", 
    "歷年現金增(減)資": "1.舊票換新票，換票比例550股，最後過戶日106.07.26，停止過戶期間106.07.27~106.10.152.減資4.8932083億元，折換比例450股，最後過戶日106.07.26，停止過戶期間106.07.27~106.10.123.增資0億元，可認股數1234.625股，認購價13元，最後過戶日103.07.24，停止過戶期間103.07.25~103.07.30，繳款期間103.08.08~103.08.18", 
    "歷年股東會": "1.106.06.28股東會，停止過戶期間106.05.30~106.06.282.105.06.22股東會，停止過戶期間105.05.24~105.06.223.104.06.30股東會，停止過戶期間104.06.01~104.06.304.104.04.10股東臨時會，停止過戶期間104.03.27~104.04.105.103.07.22股東臨時會，停止過戶期間103.07.08~103.07.226.103.06.26股東會，停止過戶期間103.05.28~103.06.267.102.09.27股東臨時會，停止過戶期間102.09.12~102.09.278.102.06.25股東會，停止過戶期間102.05.27~102.06.259.101.05.18股東會，停止過戶期間101.04.19~101.05.18", 
    "歷年除權除息": "-", 
    "每仟股減資股數": "-", 
    "每仟股認購股數": "1,234.625 股", 
    "減資金額(千)": "-", 
    "營業項目": "F601010  智慧財產權業  \nIZ99990  其他工商服務業  \nIG01010  生物技術服務業  \nF401010  國際貿易業  \nCF01011  醫療器材製造業  \nF108031  醫療器材批發業  \nF208031  醫療器材零售業  \nI103060  管理顧問業  \nF113030  精密儀器批發業  \nF213040  精密儀器零售業  \nEZ05010  儀器、儀表安裝工程業  \nE605010  電腦設備安裝業  \nI301010  資訊軟體服務業  \nJE01010  租賃業  \nIZ12010  人力派遣業  \nI301020  資料處理服務業  \nF213030  電腦及事務性機器設備零售業  \nZZ99999  除許可業務外，得經營法令非禁止或限制之業務", 
    "特別股": "-", 
    "現金股息": "-", 
    "申請上興櫃日期": "-", 
    "申請類別": "-", 
    "發言人": "-", 
    "發言人電話": "-", 
    "簽證會計師": "-", 
    "統一編號": "53201266", 
    "總經理": "-", 
    "繳款期限": "103/08/08~103/08/18", 
    "股務代理": "群益金鼎証券", 
    "股務地址": "-", 
    "股務電話": "02-2703-5000#9", 
    "股東會日期": "107/05/30", 
    "股票代號": "-", 
    "股票股利": "-", 
    "臨時股東會": "-", 
    "董事會通過日期": "-", 
    "董事長": "陳奕雄", 
    "解散日期": "-", 
    "認購價": "13 元", 
    "證期局通過日期": "-", 
    "資本額(元)": "1,500,000,000", 
    "輔導券商": "-", 
    "電子郵件信箱": "-"
}