{
    "-": "-", 
    "Company Name": "立榮航空", 
    "Company URL": "http://www.berich.com.tw/DP/Cmpinfo/Cmpinfo.asp?cmpname=%A5%DF%BAa%AF%E8%AA%C5", 
    "上市櫃補件原因": "-", 
    "上市櫃補件日期": "-", 
    "上市櫃退件原因": "-", 
    "上市櫃退件日期": "-", 
    "上興櫃日期": "-", 
    "下興櫃原因": "-", 
    "下興櫃日期": "-", 
    "代理發言人": "陳雄智", 
    "停止過戶日": "106/07/10~106/07/14", 
    "停止過戶期間": "-", 
    "公司傳真": "02-25132511", 
    "公司地址": "臺北市中山區長安東路2段117號8樓", 
    "公司網址": "www.uniair.com.tw", 
    "公司電話": "02-25135533", 
    "公開發行日期": "80/07/25", 
    "增資金額(億)": "-", 
    "實收資本額(元)": "3,160,000,000元", 
    "審議會通過日期": "-", 
    "成立日期": "77/08/06", 
    "承銷價": "-", 
    "掛牌日期": "-", 
    "換發無實體日期": "-", 
    "普通股": "316,000,000股(含私募0股)", 
    "暫停公開發行日期": "-", 
    "最後過戶日": "-", 
    "未上市櫃股票公司名稱": "立榮航空股份有限公司", 
    "歷年現金增(減)資": "1.減資12.95229億元，折換比例0.590117354股，最後過戶日97.08.13，停止過戶期間97.08.14~97.08.182.增資12.95229億元，可認股數0.625120371股，認購價10元，最後過戶日97.08.13，停止過戶期間97.08.14~97.08.18，繳款期間97.08.22~97.09.223.減資26.4億元，折換比例48股，最後過戶日92.07.31，停止過戶期間92.08.01~92.08.054.增資30億元，可認股數94股，認購價10元，最後過戶日92.07.31，停止過戶期間92.08.01~92.08.05，繳款期間92.08.12~92.09.125.增資34.375億元，認購價10元，最後過戶日90.08.10，停止過戶期間90.08.11~90.08.15，繳款期間90.08.20~90.12.20", 
    "歷年股東會": "1.105.05.31股東會，停止過戶期間105.04.02~105.05.312.104.05.29股東會，停止過戶期間104.03.31~104.05.293.103.05.26股東會，停止過戶期間103.03.28~103.05.264.102.11.29股東臨時會，停止過戶期間102.10.31~102.11.295.102.05.31股東會，停止過戶期間102.04.02~102.05.316.101.05.30股東會，停止過戶期間101.04.01~101.05.307.100.05.31股東會，停止過戶期間100.04.02~100.05.318.89.06.16股東會，停止過戶期間89.05.17~89.06.169.87.05.07股東會，停止過戶期間87.04.08~87.05.0710.99.06.24股東會，停止過戶期間99.04.26~99.06.2411.98.05.15股東會，停止過戶期間98.03.17~98.05.1512.97.06.27股東會，停止過戶期間97.04.29~97.06.2713.96.08.10股東臨時會，停止過戶期間96.07.12~96.08.1014.96.05.31股東會，停止過戶期間96.04.02~96.05.3115.95.05.16股東會，停止過戶期間95.03.18~95.05.1616.94.05.23股東會，停止過戶期間94.03.25~94.05.2317.93.06.29股東會，停止過戶期間93.05.01~93.06.2918.92.06.24股東會，停止過戶期間92.04.26~92.06.24", 
    "歷年除權除息": "-", 
    "每仟股減資股數": "-", 
    "每仟股認購股數": "-", 
    "減資金額(千)": "-", 
    "營業項目": "-", 
    "特別股": "0股", 
    "現金股息": "0.5元", 
    "產品/業務": "民用航空運輸業航空站地勤業除許可項目外，得經營法令非禁止或限制之業務", 
    "申請上興櫃日期": "-", 
    "申請類別": "-", 
    "發言人": "林志忠", 
    "發言人電話": "02-25135533", 
    "簽證會計師": "勤業眾信聯合會計師事務所", 
    "統一編號": "22958771", 
    "總經理": "林志忠", 
    "繳款期限": "-", 
    "股務代理": "本公司股務部", 
    "股務地址": "台北市中山區民生東路2段166號2樓", 
    "股務電話": "02-25001668", 
    "股東會日期": "107/06/01", 
    "股票代號": "2621", 
    "股票股利": "50股", 
    "臨時股東會": "-", 
    "董事會通過日期": "-", 
    "董事長": "陳憲弘", 
    "解散日期": "-", 
    "認購價": "-", 
    "證期局通過日期": "-", 
    "資本額(元)": "-", 
    "輔導券商": "-", 
    "電子郵件信箱": "jessicayang@uniair.com.tw"
}