{
    "-": "-", 
    "Company Name": "強固保全", 
    "Company URL": "http://www.berich.com.tw/DP/Cmpinfo/Cmpinfo.asp?cmpname=%B1j%A9T%ABO%A5%FE", 
    "上市櫃補件原因": "-", 
    "上市櫃補件日期": "-", 
    "上市櫃退件原因": "-", 
    "上市櫃退件日期": "-", 
    "上興櫃日期": "-", 
    "下興櫃原因": "-", 
    "下興櫃日期": "-", 
    "代理發言人": "-", 
    "停止過戶日": "-", 
    "停止過戶期間": "-", 
    "公司傳真": "-", 
    "公司地址": "臺北市大同區延平北路2段202號15樓、15樓之1、12樓之1", 
    "公司網址": "-", 
    "公司電話": "(02)25502617", 
    "公開發行日期": "-", 
    "增資金額(億)": "-", 
    "實收資本額(元)": "300,000,000", 
    "審議會通過日期": "-", 
    "成立日期": "070年09月09日", 
    "承銷價": "-", 
    "掛牌日期": "-", 
    "換發無實體日期": "-", 
    "普通股": "-", 
    "暫停公開發行日期": "89/12/04", 
    "最後過戶日": "-", 
    "未上市櫃股票公司名稱": "強固保全股份有限公司", 
    "歷年現金增(減)資": "-", 
    "歷年股東會": "-", 
    "歷年除權除息": "-", 
    "每仟股減資股數": "-", 
    "每仟股認購股數": "-", 
    "減資金額(千)": "-", 
    "營業項目": "I901011  保全業            查詢「原營利事業登記證所登載之營業項目資料」", 
    "特別股": "-", 
    "現金股息": "-", 
    "申請上興櫃日期": "-", 
    "申請類別": "-", 
    "發言人": "劉先皋", 
    "發言人電話": "-", 
    "簽證會計師": "-", 
    "統一編號": "12348012", 
    "總經理": "湯永郎", 
    "繳款期限": "-", 
    "股務代理": "永昌證券", 
    "股務地址": "-", 
    "股務電話": "02-2718-6425", 
    "股東會日期": "105/06/30", 
    "股票代號": "-", 
    "股票股利": "-", 
    "臨時股東會": "-", 
    "董事會通過日期": "-", 
    "董事長": "湯永郎", 
    "解散日期": "-", 
    "認購價": "-", 
    "證期局通過日期": "-", 
    "資本額(元)": "600,000,000", 
    "輔導券商": "-", 
    "電子郵件信箱": "-"
}