{
    "-": "-", 
    "Company Name": "台灣期貨交易所", 
    "Company URL": "http://www.berich.com.tw/DP/Cmpinfo/Cmpinfo.asp?cmpname=%A5x%C6W%B4%C1%B3f%A5%E6%A9%F6%A9%D2", 
    "上市櫃補件原因": "-", 
    "上市櫃補件日期": "-", 
    "上市櫃退件原因": "-", 
    "上市櫃退件日期": "-", 
    "上興櫃日期": "-", 
    "下興櫃原因": "-", 
    "下興櫃日期": "-", 
    "代理發言人": "-", 
    "停止過戶日": "105/07/23~105/07/27", 
    "停止過戶期間": "-", 
    "公司傳真": "-", 
    "公司地址": "臺北市中正區羅斯福路2段100號14樓及102號13樓", 
    "公司網址": "www.taifex.com.tw/", 
    "公司電話": "02-2365-1010", 
    "公開發行日期": "-", 
    "增資金額(億)": "-", 
    "實收資本額(元)": "3,151,805,590", 
    "審議會通過日期": "-", 
    "成立日期": "086年09月09日", 
    "承銷價": "-", 
    "掛牌日期": "-", 
    "換發無實體日期": "-", 
    "普通股": "-", 
    "暫停公開發行日期": "-", 
    "最後過戶日": "-", 
    "未上市櫃股票公司名稱": "臺灣期貨交易所股份有限公司", 
    "歷年現金增(減)資": "-", 
    "歷年股東會": "1.106.06.22股東會，停止過戶期間106.05.24~106.06.222.105.06.24股東會，停止過戶期間105.05.26~105.06.243.104.06.25股東會，停止過戶期間104.05.27~104.06.254.103.06.19股東會，停止過戶期間103.05.21~103.06.195.102.06.20股東會，停止過戶期間102.05.22~102.06.206.101.06.21股東會，停止過戶期間101.05.23~101.06.217.100.06.23股東會，停止過戶期間100.05.25~100.06.238.99.06.24股東會，停止過戶期間99.05.26~99.06.249.98.06.25股東會，停止過戶期間98.05.27~98.06.2510.97.06.19股東會，停止過戶期間97.05.21~97.06.1911.96.06.28股東會，停止過戶期間96.05.30~96.06.2812.95.06.26股東會，停止過戶期間95.05.28~95.06.2613.94.06.23股東臨時會，停止過戶期間94.05.25~94.06.2314.93.06.28股東會，停止過戶期間93.05.30~93.06.28", 
    "歷年除權除息": "1.除權30股，盈餘配股30股，日期未知。(紀錄日期：106.04.26)，2.除權30股，盈餘配股30股，日期未知。(紀錄日期：105.05.03)，3.除權25股，盈餘配股25股，日期未知。(紀錄日期：104.04.28)，4.除權20股，盈餘配股20股，日期未知。(紀錄日期：103.04.28)，5.除息2.3元，停止過戶期間94.07.02~94.07.06，6.除息1.24元，停止過戶期間93.07.02~93.07.06，7.除息2.2元，盈餘分配之現金股息2.2元，停止過戶期間106.06.26~106.06.30，8.除息2.2元，盈餘分配之現金股息2.2元，停止過戶期間105.07.23~105.07.27，9.除息1.95元，盈餘分配之現金股息1.95元，停止過戶期間104.06.27~104.07.01，10.除息1.8元，盈餘分配之現金股息1.8元，停止過戶期間103.06.21~103.06.25，11.除息1.95元，盈餘分配之現金股息1.95元，停止過戶期間102.06.22~102.06.26，12.除息2.25元，停止過戶期間101.06.23~101.06.27，13.除息1.5元，停止過戶期間100.06.25~100.06.29，14.除息1元，日期未知。(紀錄日期：99.05.11)，15.除息1元，停止過戶期間98.06.26~98.06.30，16.除息1元，停止過戶期間97.06.20~97.06.25，17.除息0.67元，停止過戶期間96.07.03~96.07.07，18.除息2.19元，停止過戶期間95.07.27~95.07.31，19.除權20股，盈餘配股20股，最後過戶日102.07.19，停止過戶期間102.07.20~102.07.24，20.除權25股，盈餘配股25股，最後過戶日101.07.20，停止過戶期間101.07.21~101.07.25，21.除權17股，盈餘配股17股，最後過戶日100.07.22，停止過戶期間100.07.23~100.07.27，22.除權67股，盈餘配股67股，最後過戶日99.07.23，停止過戶期間99.07.24~99.07.28，23.除權67股，盈餘配股67股，最後過戶日98.07.17，停止過戶期間98.07.20~98.07.24，24.除權67股，最後過戶日97.07.28，停止過戶期間97.07.29~97.08.02，25.除權100股，最後過戶日96.07.23，停止過戶期間96.07.24~96.07.28，", 
    "每仟股減資股數": "-", 
    "每仟股認購股數": "-", 
    "減資金額(千)": "-", 
    "營業項目": "H402011  期貨交易所  \nH403011  期貨結算機構            查詢「原營利事業登記證所登載之營業項目資料」", 
    "特別股": "-", 
    "現金股息": "2.2元", 
    "申請上興櫃日期": "-", 
    "申請類別": "-", 
    "發言人": "-", 
    "發言人電話": "-", 
    "簽證會計師": "-", 
    "統一編號": "16092130", 
    "總經理": "-", 
    "繳款期限": "-", 
    "股務代理": "中國信託", 
    "股務地址": "-", 
    "股務電話": "02-2181-1911#9", 
    "股東會日期": "107/06/29", 
    "股票代號": "-", 
    "股票股利": "-", 
    "臨時股東會": "-", 
    "董事會通過日期": "-", 
    "董事長": "劉連煜", 
    "解散日期": "-", 
    "認購價": "-", 
    "證期局通過日期": "-", 
    "資本額(元)": "3,151,805,590", 
    "輔導券商": "-", 
    "電子郵件信箱": "-"
}