{
    "線上以卡辦卡 快易通<br>-未上市股票新聞 -2017/8/11": "行動支付正夯，民眾一支手機可以存很多張信用卡，但複雜麻煩的申卡流程著實讓人苦惱。如今，多家銀行提供「以卡辦卡」服務，即已有信用卡的民眾，可以利用這張信用卡驗證身分，在網路上申辦另一張信用卡，頗受民眾歡迎。<br>推出以卡辦卡服務最積極者，當屬玉山與遠東銀行。玉山銀行7月底搶先推出信用卡驗證辦卡，遠東銀行立馬跟進，宣布成為首家提供存款帳戶和信用卡雙軌身分驗證申辦信用卡的銀行，因應想要線上快速辦信用卡的民眾需求。<br>為方便民眾申辦信用卡，金管會推動「信用卡輔助持卡人身分驗證平台」服務，只要透過「信用卡驗證」平台，就能在網路申辦信用卡，以卡辦卡更有效率。<br>具體的申辦流程是： 只要持有自家或其他銀行的信用卡，在特定網頁輸入信用卡卡號、有效日期，並上傳身分證及財力證明資料，即使是新戶，也能在網路上申辦信用卡，不用跑出門。<br>以玉山銀行為例，持有兆豐、聯邦、永豐、遠銀、日盛、新光、元大、陽信、華泰、三信、華銀、台中銀、匯豐、星展、台灣永旺、樂天等16家銀行的信用卡，即可在線上申辦信用卡。玉山銀行表示，以卡辦卡大幅減少申請書寄送及作業時程，免去郵寄資料的路程，還可減少紙張的用量。<br>為鼓勵線上以卡辦卡，玉山銀還祭出核卡後45天內首刷單筆888元，新戶加碼贈統一超商現金抵用券200元的優惠。<br>遠東銀則結合財金資訊公司「跨行金融帳戶資訊核驗系統」，同步提供「存款戶與信用卡戶」雙軌線上身分認證，適用20家銀行存戶與卡友，涵蓋客戶最多。<br>只要輸入他行帳戶銀行名稱等，就會透過財金資訊公司進行身分驗證並提供財力證明，完成開戶辦卡。<摘錄經濟>", 
    "持金融卡赴日 逾700台ATM可提款 範圍擴及東京、京都、大阪及北海<br>-未上市股票新聞 -2017/2/6": "持金融卡赴日 逾700台ATM可提款 範圍擴及東京、京都、大阪及北海道等OK、Sunkus超商。<br>財金公司宣布，超過700台的日本OK及Sunkus便利超商ATM，已加入 台灣金融卡的跨國提款陣容，該跨國提款服務，是由超過700台的Ba nkTimeATM提供，而台灣這裡可適用的金融卡，合計已超過5,500萬張 ，市占率近6成。<br>財金公司也提醒，即使如此，民眾出國前仍別忘了先向發卡銀行確 認是否已經開啟台灣金融卡的「跨國服務」功能，否則到了當地才發 現因為沒開通跨國服務功能，所以不能用，就非常掃興。<br>財金公司指出，為提供台灣旅客赴日更便利的服務，台日金融業在 2010年即攜手合作，由銀行公會協助各金融機構規劃，財金公司與N TTDATA公司提供雙方資訊介接平台，台灣銀行與北海道銀行擔任跨國 結算銀行， 2010年開通金融卡先從北海道地區的跨國提款、消費購 物展開，而從2017年起，日本ATM服務範圍已大為擴張，財金公司統 計，包括東京、京都、大阪及北海道等地區的OK、Sunkus及部分全家 便利商店，已有超過700台BankTime ATM提供「台灣金融卡」卡別進 行提領日圓服務。<br>除了超商體系，財金公司也進而指出，包括「東京成田機場」第二 航廈國際線入境大廳1樓的京葉銀行ATM、「仙台國際機場」的77銀行 ATM，亦將於1月底提供服務。<br>在便利商店、機場ATM合力助陣下，財金公司指出，台灣旅客的日 圓提領大為便利，再也不用擔心身上現金帶不夠的老問題。財金公司 也比較各卡別的現金提領費用指出，民眾持「金融卡」在日本提款的 匯率，和台銀臨櫃兌換現鈔匯率一樣便宜，手續費為交易金額0.8％ 加日圓150元，以提領3萬日圓為例，手續費為390元日圓，約台幣10 9元，比起其他支付卡片可節省近一半。<br>財金公司統計，目前參加日本金融卡跨國提款及餘額查詢服務的台 灣發卡銀行，除八大公股行庫外，還有上海商銀、國泰世華、高雄銀 、新光、陽信、花蓮二信、聯邦、元大及玉山等17家銀行，遠東銀將 於2月11日開辦，台中銀、華泰、三信銀及日盛銀等將於今年提供服 務。<摘錄工商>", 
    "華泰銀健康講座 迴響熱烈<br>-未上市股票新聞 -2017/6/22": "財團法人華泰商業銀行文教公益基金會與財團法人全聯慶祥慈善事業基金會、財團法人全民健康基金會，17日共同主辦「輕鬆甩油、遠離三高」大型公益健康講座，邀請台大名醫開講，現場民眾反應熱烈，圓滿完成。<br>華泰銀行文教基金會從97年起，開始與肝病防治學術基金會、全聯慶祥慈善基金會攜手舉辦各種健康議題的大、小型健康講座，至今超過50場以上，參加民眾達萬人，三個基金會主要共同訴求是呼籲國人預防醫學，及正確醫療知識觀念的重要性。華泰銀行文教基金會表示，社會大眾的肯定與支持，是推動華泰銀行基金會繼續走下去的動力，將會以誠摯為社會大眾灌溉更多關懷的種子，也期待這些種子產生拋磚引玉的效能，喚起更多的力量回饋社會大眾，讓善良風氣散播出更多美好的幸福人生。（孫震宇）<摘錄經濟>", 
    "華泰銀金雞報曉發財金 祝客戶財源滾滾如意來<br>-未上市股票新聞 -2017/1/12": "華泰銀行繼為客戶製作「蛇」、「馬」、「羊」、「猴」年發財金 ，並得到客戶熱烈迴響後，今年持續為客戶製作「雞」年發財金，今 年更特別至台北艋舺龍山寺為客戶祈福納財，舉行過爐儀式，期藉由 金雞報曉，帶給客戶財源滾滾、四季進財、吉祥如意。<br>華泰銀行表示，連續4年發行歲次發財金廣受客戶好評，每年客戶 都會在年初期待拿到新的歲次發財金，帶來一整年滿滿的財氣。此次 發財金圖像結合中國結與歲次雞年意象，以中國結代表吉祥如意、金 雞報曉圖像，代表喜迎新春、財源滾滾，讓收到發財金之客戶，在新 的一年都能四季進財。<br>華泰銀行昨(11)日由副總經理楊尊景親率各級分行主管至台北艋 舺龍山寺，舉行祈福及發財金過爐儀式，在龍山寺董事長黃欽山熱情 引領下，華泰銀行祈福團隊虔誠地向大殿內供奉的觀世音菩薩上香祈 福，希冀新的一年，華泰銀行客戶都能「財源廣進、萬事如意、迎春 納福」，並將二萬個「106年歲次丁酉雞年發財金」於龍山寺主爐過 爐加持。<br>華泰銀行希望藉這一次新年發財金的過爐祈福，除了「健康」以外 ，更將一整年滿滿的「財運」帶給客戶。<摘錄工商>", 
    "華泰銀新獨董 兆豐幫聚焦<br>-未上市股票新聞 -2017/6/9": "華泰銀行昨（8）日召開股東會，改選董事，其中兩名新任獨董引人側目，即前兆豐銀行總經理魏美玉與前兆豐銀行副總經理李碧齡任獨立董事，另外，全聯實業也改派代表，替補徐重仁續任華泰銀董事 。<br>為提升資產品質、力拼獲利回穩，華泰銀3月通過聘任前兆豐資產管理公司董事長賴昭銑出任董事長，賴昭銑是美國麻州亞瑟迪利特管理教育學院管理碩士畢業；他在兆豐銀由基層做起，熟悉授信業務，曾任兆豐銀行副總經理及兆豐銀行授信業務量最龐大的國外部協理，2013年退休。<br>賴昭銑與魏美玉、李碧齡是舊識，由於同樣出身中國國際商銀（兆豐銀行前身之一），彼此為相識數十年的老同事，而賴昭銑掌管華泰銀後，也重用「兆豐幫」，將前兆豐銀行總經理魏美玉與前兆豐銀行副總經理李碧齡引進華泰銀，擔任獨立董事。<br>華泰銀行本次董事改選，除由魏美玉與李碧齡擔任新任獨立董事外，一般董事舊任全聯福利中心總裁徐重仁（全聯實業代表人）與張錦堂卸任後，也由董事為林子文（全聯實業代表人）與黃宏仁（東裕投資代表人）新任，共計14名董事，變動達三分之一。<br>賴昭銑自3月底出任華泰銀行董事長後，力拚降低逾放比、加速不良資產的出售以及提升獲利，而請魏、李兩人擔任華泰銀行獨立董事，是希望借重兩位豐富的實務經驗，讓華泰銀行各項業務穩健發展。<br>華泰銀股東會通過去年稅前獲利約0.57億元，每股盈餘0.03元，並通過盈餘分配案，配發現金股利0.12元。<摘錄經濟>", 
    "華泰銀文山分行 升格<br>-未上市股票新聞 -2017/1/3": "華泰銀行文山分行1月3日升格為全功能分行，該行34家分行不僅全數成為外匯指定銀行，且可同時受理企業及個人金融服務業務，加上企業網銀平台與即將推出的行動銀行，華泰銀虛實布建同步有斬獲，<br>華泰銀行獲中小企業放款之均衡區域發展特別獎，文山簡易分行升格為文山分行，是繼南門簡易分行遷移至桃園成立正式分行後，獲得該獎的再次肯定，目前分行數已增至34家。<br>除主管機關肯定外，華泰銀近來獲獎連連，在服務品質及社會公益方面得到最佳客戶服務、最佳財富管理服務、最佳社會責任獎、以及年度十大最佳企業、年度十大績優企業，更獲得SGS連續三年服務品質認證。<摘錄經濟>", 
    "華泰銀董座 傳有請賴昭銑<br>-未上市股票新聞 -2017/3/20": "華泰銀行上周三公告法人董事長將改派代表人，現任董事長林博義將去職，並在23日(周四)完成董事長選任，對此金融圈已傳出接替人選，將由大股東林敏雄出面延攬前兆豐銀副總、也曾任兆豐資產管理公司董事長賴昭銑，出掌華泰銀行新董座。<br>這也是繼土銀總經理高明賢確定將在清明節過後轉戰板信總經理後，第二宗公股行庫背景的金融圈人士出任民營銀行董總級職務的人事案。<br>近幾年中小型民營銀行不斷向公股行庫招手，特別是在近2個月內，就有兩件公股金融圈高層轉戰民營銀行董總級高層的人事案成局，由此可見公股金融圈的經營高層在中小型民營銀行很搶手。<br>在兆豐資產管理公司董事長任內退休的賴昭銑，過去曾任兆豐銀副總及兆豐銀授信業務量最龐大的國外部協理，賴昭銑對授信相關業務的管理經驗豐富，應是華泰銀大股東，也是前任董事長林敏雄出面延攬他的重要原因。<br>華泰銀行目前以國內的知名量販通路全聯社集團為最大股東，林博義是以全聯社董事長林敏雄旗下的翔鼎投資公司法人代表的名義出任華泰銀行董事長，上周華泰銀公告將改派代表人，但並未同步公布新代表人人選。<br>據悉，多年來林博義的身體狀況一直不佳，健康因素應是他辭去華泰銀行董事長的關鍵。<摘錄工商>"
}