{
    "耐特科技以服務取勝 朝科技、環保、創新邁進<br>-未上市股票新聞 -2017/10/13": "耐特科技20多年來不斷在工程塑膠材料領域演進、進行改良、創新，面對新資訊時代來臨，除專注傳統工程塑膠複合材料外，近年來更朝「科技、創新、環保」目標邁進，成功開發高導熱塑膠、高玻纖含量尼龍材料及環保可分解材料等三大系列產品，提供新市場解決方案。<br>耐特科技董事長陳勳森表示，耐特（上海）與大陸台商互動緊密，在上海、香港及深圳等地設有倉儲配送中心，採全年無休服務，扮演生產、製造、及代理三位一體的大廠，轉型成為擁有通路及發貨中心，將塑化產業視為「服務業」，以服務取勝，創新市場。<br>陳勳森指出，中國自2011年啟動「十二五計畫」後，近年來大陸的汽車、家電及民生工業用品快速攀升，耐特積極開發這些產品，投入開發生質可分解材料。耐特在大陸發展的複合材料及系列產品包括：「汽車配件」、「電子」、「電機」、「電動工具」、「運動休閒」、「醫療用品」等，在產業升級及市場供應鏈上扮演重要角色。<br>近年來，耐特（上海）公司發展不錯，汽車及運動器材用的工程塑膠及複材表現尤佳。耐特（上海）更以研發、品質及成長等表現卓越，曾獲上海市政府頒發「科技小巨人獎」，獲得150萬人民幣的高額獎金。<br>隨著全球白熾燈實施禁用停產後，將帶動LED燈產業興起。耐特科技近來研發成功的高導熱塑膠，可提供LED室內及戶外照明燈具的塑膠散熱材料，包括導電型和絕緣型；同時積極參與合作夥伴的產品開發，協助材料選擇與技術支援。<摘錄工商>", 
    "耐特科技 創新塑化市場<br>-未上市股票新聞 -2017/5/11": "耐特科技20多年來不斷在工程塑膠材料領域演進、進行改良、創新。<br>面對新資訊時代來臨，除專注傳統工程塑膠複合材料外，近年來更朝「科技、創新、環保」目標邁進。成功開發高導熱塑膠、高玻纖含量尼龍材料及環保可分解材料等三大系列產品，提供新市場所需的解決方案。<br>耐特科技董事長陳勳森表示，耐特(上海)與大陸台商互動緊密，在上海、香港及深圳等地設有倉儲配送中心，採7-11全年無休服務。<br>耐特科技希望扮演生產、製造、及代理三位一體的大廠，積極轉型成為擁有通路及發貨中心，並將塑化產業視為「服務業」，以服務取勝，創新塑化市場。<br>陳勳森指出，中國自2011年啟動「十二五計畫」後，近年來大陸的汽車、家電及民生工業用品快速攀升。<br>耐特亦積極開發這些產品，以及投入開發生質可分解材料，為愛護地球盡一份心力。<摘錄工商>"
}