{
    "中國生化科技": "中國生化", 
    "中華海洋生技": "中華海洋", 
    "中華立鼎光電": "中華立鼎", 
    "京華堂實業": "京華堂", 
    "優陽材料科技": "優陽材料", 
    "南美特科技": "南美特科", 
    "台中精機廠": "台中精機", 
    "台亞衛星通訊": "台亞衛星", 
    "台塑網科技": "台塑網科", 
    "台灣之星電信": "台灣之星", 
    "台灣奈米碳素": "台灣奈米", 
    "台灣集中保管結算所": "台灣集保", 
    "台灣龍盟科技": "台灣龍盟", 
    "善德生化": "善德生技", 
    "國璽幹細胞應用技術": "國璽幹細", 
    "大中票券金融": "大中票券", 
    "大無畏全球投資控股": "大無畏控股", 
    "大銀微系統": "大銀微系", 
    "太平洋崇光百貨": "崇光百貨", 
    "太平洋電線電纜": "太電電纜", 
    "宣捷幹細胞生技": "宣捷幹細胞", 
    "宣捷生物科技": "宣捷生技", 
    "必翔電能高科技": "必翔電能", 
    "新光三越百貨": "新光三越", 
    "旭暉應用材料": "旭暉應用", 
    "昱鐳光電科技": "昱鐳光電", 
    "板信商業銀行": "板信商銀", 
    "格上汽車租賃": "格上租車", 
    "永達保險經紀": "永達保險", 
    "華泰商業銀行": "華泰銀行", 
    "華矽半導體": "華矽半導", 
    "華聯生物科技": "華聯生技", 
    "賽亞基因科技": "賽亞基因", 
    "陽信商業銀行": "陽信商銀"
}