{
    "本公司106年股東常會重要決議事項<br>-未上市股票公告 -2017/6/9": "1.事實發生日:106/06/092.發生緣由:一承認事項:  (1)通過承認本公司105年度營業報告書及財務報表案  (2)通過承認本公司105年度盈虧撥補表案二討論事項:  (1)通過修訂本公司取得或處分資產處理程序案  (2)通過修訂本公司章程案三選舉事項:  (1)補選獨立董事一席-當選人:楊智育3.因應措施:無4.其他應敘明事項:無<摘錄公資訊觀測站>", 
    "本公司新任會計主管<br>-未上市股票公告 -2017/7/3": "1.事實發生日:107/07/012.發生緣由:本公司新任會計主管3.因應措施:(1)人員變動別:會計主管(2)發生變動日期:106/05/10(3)舊任者姓名:涂美如(4)新任者姓名:陳毓玲(5)異動情形:新任(6)異動原因:原會計主管離職(7)生效日期:106/05/104.其他應敘明事項:106/07/01經董事會通過任用。<摘錄公開資訊觀測站>", 
    "本公司會計主管離職<br>-未上市股票公告 -2017/3/31": "1.事實發生日:106/03/312.發生緣由:本公司會計主管涂美如因職涯規劃離職3.因應措施:無4.其他應敘明事項:無<摘錄公開資訊觀測站>"
}